test.vcd
$date
	Fri Jul 17 13:46:58 2026
$end
$version
	QuestaSim Version 2025.2_1
$end
$timescale
	1ns
$end

$scope module tbCover $end
$var reg 3 ! req [2:0] $end
$var reg 3 " done [2:0] $end
$var reg 1 # clk $end
$var reg 8 $ mstate [7:0] $end
$var reg 2 % accmodule [1:0] $end
$upscope $end
$enddefinitions $end
#0
$dumpvars
b0 !
b0 "
0#
b1 $
bx %
$end
#5
1#
#10
b1 !
b110 "
0#
b1 %
#15
1#
#20
b11 !
b100 "
0#
#25
1#
#30
0#
#35
1#
#40
0#
#45
1#
#50
b10 !
b101 "
0#
#55
1#
#60
b11 !
b100 "
0#
b0 %
#65
1#
b10 $
b1 %
#70
b111 !
b0 "
0#
b1 $
#75
1#
#80
b101 !
b10 "
0#
b0 %
#85
1#
b10 $
b1 %
#90
b10 !
b101 "
0#
#95
1#
b10000 $
b10 %
#100
b110 !
b1 "
0#
b1 %
b1 $
#105
1#
#110
0#
b0 %
#115
1#
b1000000 $
b11 %
#120
b111 !
b0 "
0#
b1 %
b1 $
#125
1#
#130
0#
b0 %
#135
1#
b10 $
b1 %
#140
b1 !
b110 "
0#
#145
1#
#150
b11 !
b100 "
0#
b1 $
#155
1#
#160
b1 !
b110 "
0#
#165
1#
#170
b10 !
b101 "
0#
b0 %
#175
1#
b10000 $
b10 %
#180
b101 !
b10 "
0#
b1 %
b1 $
#185
1#
#190
b110 !
b1 "
0#
#195
1#
#200
b100 !
b11 "
0#
#205
1#
#210
b101 !
b10 "
0#
b0 %
#215
1#
b10 $
b1 %
#220
b1 !
b110 "
0#
b1 $
#225
1#
#230
b11 !
b100 "
0#
#235
1#
#240
b100 !
b11 "
0#
#245
1#
#250
0#
#255
1#
#260
b111 !
b0 "
0#
b0 %
#265
1#
b10 $
b1 %
#270
b0 !
b111 "
0#
b1 $
#275
1#
#280
b10 !
b101 "
0#
#285
1#
#290
b111 !
b0 "
0#
b0 %
#295
1#
b10 $
b1 %
#300
b10 !
b101 "
0#
b1 $
#305
1#
#310
b100 !
b11 "
0#
b0 %
#315
1#
b1000000 $
b11 %
#320
b110 !
b1 "
0#
#325
1#
b10000000 $
#330
b1 !
b110 "
0#
#335
1#
b10 $
b1 %
#340
b110 !
b1 "
0#
b1 $
#345
1#
#350
b101 !
b10 "
0#
b0 %
#355
1#
b10 $
b1 %
#360
0#
b1 $
#365
1#
#370
b110 !
b1 "
0#
b0 %
#375
1#
b1000000 $
b11 %
#380
b10 !
b101 "
0#
b1 %
b1 $
#385
1#
#390
b0 !
b111 "
0#
#395
1#
#400
b110 !
b1 "
0#
b0 %
#405
1#
b1000000 $
b11 %
#410
0#
#415
1#
b10000000 $
#420
0#
b1 %
b1 $
#425
1#
#430
b111 !
b0 "
0#
#435
1#
#440
b1 !
b110 "
0#
b0 %
#445
1#
b10 $
b1 %
#450
b10 !
b101 "
0#
#455
1#
b10000 $
b10 %
#460
0#
#465
1#
b100000 $
#470
b111 !
b0 "
0#
b1 %
b1 $
#475
1#
#480
0#
#485
1#
#490
b10 !
b101 "
0#
b0 %
#495
1#
b10000 $
b10 %
#500
b111 !
b0 "
0#
b1 %
b1 $
#505
1#
#510
b0 !
b111 "
0#
#515
1#
#520
b11 !
b100 "
0#
b0 %
#525
1#
b10 $
b1 %
#530
b0 !
b111 "
0#
b1 $
#535
1#
#540
b110 !
b1 "
0#
b0 %
#545
1#
b1000000 $
b11 %
#550
b10 !
b101 "
0#
#555
1#
b10000 $
b10 %
#560
b111 !
b0 "
0#
#565
1#
b100 $
b1 %
#570
b100 !
b11 "
0#
#575
1#
b1000000 $
b11 %
#580
b11 !
b100 "
0#
#585
1#
b10 $
b1 %
#590
b110 !
b1 "
0#
b1 $
#595
1#
#600
0#
#605
1#
#610
b100 !
b11 "
0#
#615
1#
#620
b111 !
b0 "
0#
b0 %
#625
1#
b10 $
b1 %
#630
b110 !
b1 "
0#
#635
1#
b10000 $
b10 %
#640
b100 !
b11 "
0#
#645
1#
b1000000 $
b11 %
#650
0#
b1 %
b1 $
#655
1#
#660
b0 !
b111 "
0#
#665
1#
#670
b101 !
b10 "
0#
#675
1#
#680
b1 !
b110 "
0#
b0 %
#685
1#
b10 $
b1 %
#690
0#
#695
1#
#700
b100 !
b11 "
0#
#705
1#
b1000000 $
b11 %
#710
b0 !
b111 "
0#
b1 %
b1 $
#715
1#
#720
b111 !
b0 "
0#
b0 %
#725
1#
b10 $
b1 %
#730
0#
#735
1#
#740
b0 !
b111 "
0#
b1 $
#745
1#
#750
b10 !
b101 "
0#
b0 %
#755
1#
b10000 $
b10 %
#760
b110 !
b1 "
0#
b1 %
b1 $
#765
1#
#770
b111 !
b0 "
0#
#775
1#
#780
b1 !
b110 "
0#
b0 %
#785
1#
b10 $
b1 %
#790
b100 !
b11 "
0#
#795
1#
b1000000 $
b11 %
#800
b10 !
b101 "
0#
b1 %
b1 $
#805
1#
#810
0#
b0 %
#815
1#
b10000 $
b10 %
#820
b1 !
b110 "
0#
#825
1#
b10 $
b1 %
#830
b10 !
b101 "
0#
#835
1#
b10000 $
b10 %
#840
0#
b1 %
b1 $
#845
1#
#850
b11 !
b100 "
0#
b0 %
#855
1#
b10 $
b1 %
#860
b110 !
b1 "
0#
#865
1#
b1000000 $
b11 %
#870
b111 !
b0 "
0#
#875
1#
b100 $
b1 %
#880
b11 !
b100 "
0#
#885
1#
b1000 $
#890
b101 !
b10 "
0#
b1 $
#895
1#
#900
b100 !
b11 "
0#
#905
1#
#910
b0 !
b111 "
0#
#915
1#
#920
b100 !
b11 "
0#
#925
1#
#930
b10 !
b101 "
0#
b0 %
#935
1#
b10000 $
b10 %
#940
b0 !
b111 "
0#
b1 %
b1 $
#945
1#
#950
b101 !
b10 "
0#
b0 %
#955
1#
b10 $
b1 %
#960
b100 !
b11 "
0#
b1 $
#965
1#
#970
0#
#975
1#
#980
b101 !
b10 "
0#
b0 %
#985
1#
b10 $
b1 %
#990
b11 !
b100 "
0#
#995
1#
#1000
b101 !
b10 "
0#
#1005
1#
#1010
b0 !
b111 "
0#
b1 $
#1015
1#
#1020
b1 !
b110 "
0#
b0 %
#1025
1#
b10 $
b1 %
#1030
b11 !
b100 "
0#
b1 $
#1035
1#
#1040
b101 !
b10 "
0#
#1045
1#
#1050
0#
#1055
1#
#1060
b11 !
b100 "
0#
b0 %
#1065
1#
b10 $
b1 %
#1070
b10 !
b101 "
0#
b1 $
#1075
1#
#1080
b110 !
b1 "
0#
b0 %
#1085
1#
b1000000 $
b11 %
#1090
0#
#1095
1#
b10000000 $
#1100
b101 !
b10 "
0#
#1105
1#
b10 $
b1 %
#1110
b1 !
b110 "
0#
b1 $
#1115
1#
#1120
b110 !
b1 "
0#
b0 %
#1125
1#
b1000000 $
b11 %
#1130
0#
b1 %
b1 $
#1135
1#
#1140
b11 !
b100 "
0#
#1145
1#
#1150
b10 !
b101 "
0#
b0 %
#1155
1#
b10000 $
b10 %
#1160
b11 !
b100 "
0#
#1165
1#
b100 $
b1 %
#1170
b110 !
b1 "
0#
#1175
1#
b1000000 $
b11 %
#1180
0#
#1185
1#
b10000000 $
#1190
b111 !
b0 "
0#
#1195
1#
b10 $
b1 %
#1200
b0 !
b111 "
0#
#1205
1#
b1 $
b0 %
#1210
b101 !
b10 "
0#
b1 %
#1215
1#
#1220
b111 !
b0 "
0#
#1225
1#
#1230
b10 !
b101 "
0#
b0 %
#1235
1#
b10000 $
b10 %
#1240
b110 !
b1 "
0#
b1 %
b1 $
#1245
1#
#1250
0#
#1255
1#
#1260
0#
b0 %
#1265
1#
b1000000 $
b11 %
#1270
b1 !
b110 "
0#
b1 %
b1 $
#1275
1#
#1280
b101 !
b10 "
0#
#1285
1#
#1290
b110 !
b1 "
0#
#1295
1#
#1300
b111 !
b0 "
0#
b0 %
#1305
1#
b10 $
b1 %
#1310
b110 !
b1 "
0#
#1315
1#
b10000 $
b10 %
#1320
b11 !
b100 "
0#
b1 %
b1 $
#1325
1#
#1330
b100 !
b11 "
0#
#1335
1#
#1340
b10 !
b101 "
0#
b0 %
#1345
1#
b10000 $
b10 %
#1350
b100 !
b11 "
0#
b1 %
b1 $
#1355
1#
#1360
b0 !
b111 "
0#
#1365
1#
#1370
0#
#1375
1#
#1380
b10 !
b101 "
0#
#1385
1#
#1390
b111 !
b0 "
0#
#1395
1#
#1400
b1 !
b110 "
0#
b0 %
#1405
1#
b10 $
b1 %
#1410
b0 !
b111 "
0#
#1415
1#
b1 $
b0 %
#1420
b10 !
b101 "
0#
b1 %
#1425
1#
#1430
b1 !
b110 "
0#
#1435
1#
#1440
b0 !
b111 "
0#
b0 %
#1445
1#
#1450
b10 !
b101 "
0#
b1 %
#1455
1#
#1460
b110 !
b1 "
0#
#1465
1#
#1470
0#
b0 %
#1475
1#
b1000000 $
b11 %
#1480
b111 !
b0 "
0#
#1485
1#
b100 $
b1 %
#1490
b10 !
b101 "
0#
#1495
1#
b10000 $
b10 %
#1500
0#
#1505
1#
b100000 $
#1510
b1 !
b110 "
0#
#1515
1#
b10 $
b1 %
#1520
b10 !
b101 "
0#
#1525
1#
b10000 $
b10 %
#1530
b101 !
b10 "
0#
b1 %
b1 $
#1535
1#
#1540
b11 !
b100 "
0#
b0 %
#1545
1#
b10 $
b1 %
#1550
b1 !
b110 "
0#
b1 $
#1555
1#
#1560
b110 !
b1 "
0#
#1565
1#
#1570
b101 !
b10 "
0#
#1575
1#
#1580
b11 !
b100 "
0#
#1585
1#
#1590
b100 !
b11 "
0#
#1595
1#
#1600
0#
b0 %
#1605
1#
b1000000 $
b11 %
#1610
b111 !
b0 "
0#
#1615
1#
b100 $
b1 %
#1620
b11 !
b100 "
0#
b1 $
#1625
1#
#1630
b100 !
b11 "
0#
#1635
1#
#1640
b1 !
b110 "
0#
#1645
1#
#1650
b100 !
b11 "
0#
#1655
1#
#1660
b1 !
b110 "
0#
#1665
1#
#1670
b101 !
b10 "
0#
b0 %
#1675
1#
b10 $
b1 %
#1680
b10 !
b101 "
0#
b1 $
#1685
1#
#1690
b0 !
b111 "
0#
b0 %
#1695
1#
#1700
b11 !
b100 "
0#
#1705
1#
b10 $
b1 %
#1710
b100 !
b11 "
0#
#1715
1#
b1000000 $
b11 %
#1720
b110 !
b1 "
0#
#1725
1#
b10000000 $
#1730
b11 !
b100 "
0#
b1 %
b1 $
#1735
1#
#1740
b1 !
b110 "
0#
b0 %
#1745
1#
b10 $
b1 %
#1750
b0 !
b111 "
0#
#1755
1#
b1 $
b0 %
#1760
b11 !
b100 "
0#
b1 %
#1765
1#
#1770
b111 !
b0 "
0#
b0 %
#1775
1#
b10 $
b1 %
#1780
0#
b1 $
#1785
1#
#1790
b11 !
b100 "
0#
b0 %
#1795
1#
b10 $
b1 %
#1800
b1 !
b110 "
0#
#1805
1#
#1810
b101 !
b10 "
0#
#1815
1#
#1820
b11 !
b100 "
0#
#1825
1#
#1830
b1 !
b110 "
0#
#1835
1#
#1840
b0 !
b111 "
0#
b1 $
#1845
1#
#1850
b101 !
b10 "
0#
b0 %
#1855
1#
b10 $
b1 %
#1860
b10 !
b101 "
0#
b1 $
#1865
1#
#1870
b111 !
b0 "
0#
#1875
1#
#1880
b110 !
b1 "
0#
b0 %
#1885
1#
b1000000 $
b11 %
#1890
b111 !
b0 "
0#
b1 %
b1 $
#1895
1#
#1900
b110 !
b1 "
0#
#1905
1#
#1910
b100 !
b11 "
0#
#1915
1#
#1920
0#
#1925
1#
#1930
b0 !
b111 "
0#
#1935
1#
#1940
b111 !
b0 "
0#
b0 %
#1945
1#
b10 $
b1 %
#1950
b100 !
b11 "
0#
b1 $
#1955
1#
#1960
b110 !
b1 "
0#
#1965
1#
#1970
b0 !
b111 "
0#
#1975
1#
#1980
b11 !
b100 "
0#
#1985
1#
#1990
b110 !
b1 "
0#
#1995
1#
#2000
0#
b0 %
#2005
1#
b1000000 $
b11 %
#2010
0#
#2015
1#
b10000000 $
#2020
b111 !
b0 "
0#
b1 %
b1 $
#2025
1#
#2030
b1 !
b110 "
0#
b0 %
#2035
1#
b10 $
b1 %
#2040
0#
#2045
1#
#2050
b111 !
b0 "
0#
#2055
1#
#2060
b10 !
b101 "
0#
b1 $
#2065
1#
#2070
b1 !
b110 "
0#
#2075
1#
#2080
b10 !
b101 "
0#
#2085
1#
#2090
b11 !
b100 "
0#
#2095
1#
#2100
b100 !
b11 "
0#
b0 %
#2105
1#
b1000000 $
b11 %
#2110
b10 !
b101 "
0#
#2115
1#
b10000 $
b10 %
#2120
b11 !
b100 "
0#
#2125
1#
b100 $
b1 %
#2130
b111 !
b0 "
0#
b1 $
#2135
1#
#2140
b110 !
b1 "
0#
b0 %
#2145
1#
b1000000 $
b11 %
#2150
b11 !
b100 "
0#
b1 %
b1 $
#2155
1#
#2160
b110 !
b1 "
0#
#2165
1#
#2170
b0 !
b111 "
0#
#2175
1#
#2180
b101 !
b10 "
0#
#2185
1#
#2190
b11 !
b100 "
0#
#2195
1#
#2200
b100 !
b11 "
0#
#2205
1#
#2210
b1 !
b110 "
0#
b0 %
#2215
1#
b10 $
b1 %
#2220
0#
#2225
1#
#2230
b101 !
b10 "
0#
#2235
1#
#2240
b111 !
b0 "
0#
b1 $
#2245
1#
#2250
b11 !
b100 "
0#
#2255
1#
#2260
b10 !
b101 "
0#
#2265
1#
#2270
b110 !
b1 "
0#
b0 %
#2275
1#
b1000000 $
b11 %
#2280
b101 !
b10 "
0#
#2285
1#
b100 $
b1 %
#2290
b11 !
b100 "
0#
#2295
1#
b1000 $
#2300
b111 !
b0 "
0#
#2305
1#
b10 $
#2310
b101 !
b10 "
0#
b1 $
#2315
1#
#2320
b11 !
b100 "
0#
b0 %
#2325
1#
b10 $
b1 %
#2330
b100 !
b11 "
0#
#2335
1#
b1000000 $
b11 %
#2340
b11 !
b100 "
0#
#2345
1#
b10 $
b1 %
#2350
b111 !
b0 "
0#
#2355
1#
#2360
b110 !
b1 "
0#
b1 $
#2365
1#
#2370
b1 !
b110 "
0#
b0 %
#2375
1#
b10 $
b1 %
#2380
b110 !
b1 "
0#
#2385
1#
b1000000 $
b11 %
#2390
b11 !
b100 "
0#
#2395
1#
b10 $
b1 %
#2400
b1 !
b110 "
0#
b1 $
#2405
1#
#2410
b110 !
b1 "
0#
b0 %
#2415
1#
b1000000 $
b11 %
#2420
b10 !
b101 "
0#
b1 %
b1 $
#2425
1#
#2430
b11 !
b100 "
0#
#2435
1#
#2440
0#
#2445
1#
#2450
b110 !
b1 "
0#
#2455
1#
#2460
b10 !
b101 "
0#
b0 %
#2465
1#
b10000 $
b10 %
#2470
0#
#2475
1#
b100000 $
#2480
b111 !
b0 "
0#
#2485
1#
b10 $
b1 %
#2490
b11 !
b100 "
0#
b1 $
#2495
1#
#2500
0#
b0 %
#2505
1#
b10 $
b1 %
#2510
b111 !
b0 "
0#
#2515
1#
#2520
b110 !
b1 "
0#
#2525
1#
b10000 $
b10 %
#2530
b101 !
b10 "
0#
b1 %
b1 $
#2535
1#
#2540
0#
#2545
1#
#2550
0#
#2555
1#
#2560
b10 !
b101 "
0#
#2565
1#
#2570
b111 !
b0 "
0#
#2575
1#
#2580
b1 !
b110 "
0#
b0 %
#2585
1#
b10 $
b1 %
#2590
b101 !
b10 "
0#
b1 $
#2595
1#
#2600
b110 !
b1 "
0#
#2605
1#
#2610
b111 !
b0 "
0#
#2615
1#
#2620
b11 !
b100 "
0#
#2625
1#
#2630
0#
b0 %
#2635
1#
b10 $
b1 %
#2640
b100 !
b11 "
0#
b1 $
#2645
1#
#2650
b10 !
b101 "
0#
#2655
1#
#2660
b110 !
b1 "
0#
b0 %
#2665
1#
b1000000 $
b11 %
#2670
b0 !
b111 "
0#
#2675
1#
b1 $
b0 %
#2680
b101 !
b10 "
0#
b1 %
#2685
1#
#2690
b0 !
b111 "
0#
#2695
1#
#2700
b100 !
b11 "
0#
#2705
1#
#2710
b0 !
b111 "
0#
#2715
1#
#2720
b111 !
b0 "
0#
#2725
1#
#2730
b0 !
b111 "
0#
#2735
1#
#2740
b100 !
b11 "
0#
b0 %
#2745
1#
b1000000 $
b11 %
#2750
b110 !
b1 "
0#
b1 %
b1 $
#2755
1#
#2760
b11 !
b100 "
0#
b0 %
#2765
1#
b10 $
b1 %
#2770
b0 !
b111 "
0#
#2775
1#
b1 $
b0 %
#2780
b11 !
b100 "
0#
b1 %
#2785
1#
#2790
0#
b0 %
#2795
1#
b10 $
b1 %
#2800
b0 !
b111 "
0#
b1 $
#2805
1#
#2810
b1 !
b110 "
0#
#2815
1#
#2820
b111 !
b0 "
0#
b0 %
#2825
1#
b10 $
b1 %
#2830
b110 !
b1 "
0#
#2835
1#
b10000 $
b10 %
#2840
0#
b1 %
b1 $
#2845
1#
#2850
b101 !
b10 "
0#
b0 %
#2855
1#
b10 $
b1 %
#2860
b10 !
b101 "
0#
b1 $
#2865
1#
#2870
b111 !
b0 "
0#
b0 %
#2875
1#
b10 $
b1 %
#2880
b100 !
b11 "
0#
#2885
1#
b1000000 $
b11 %
#2890
0#
b1 %
b1 $
#2895
1#
#2900
0#
b0 %
#2905
1#
b1000000 $
b11 %
#2910
b101 !
b10 "
0#
#2915
1#
b100 $
b1 %
#2920
b11 !
b100 "
0#
#2925
1#
b1000 $
#2930
b100 !
b11 "
0#
#2935
1#
b1000000 $
b11 %
#2940
b110 !
b1 "
0#
#2945
1#
b10000000 $
#2950
b1 !
b110 "
0#
#2955
1#
b10 $
b1 %
#2960
b0 !
b111 "
0#
#2965
1#
b1 $
b0 %
#2970
b1 !
b110 "
0#
b1 %
#2975
1#
#2980
b11 !
b100 "
0#
b0 %
#2985
1#
b10 $
b1 %
#2990
b111 !
b0 "
0#
#2995
1#
#3000
b11 !
b100 "
0#
b1 $
#3005
1#
#3010
b1 !
b110 "
0#
b0 %
#3015
1#
b10 $
b1 %
#3020
0#
#3025
1#
#3030
b11 !
b100 "
0#
b1 $
#3035
1#
#3040
b101 !
b10 "
0#
#3045
1#
#3050
b0 !
b111 "
0#
b0 %
#3055
1#
#3060
b11 !
b100 "
0#
b1 %
#3065
1#
#3070
b110 !
b1 "
0#
b0 %
#3075
1#
b1000000 $
b11 %
#3080
b1 !
b110 "
0#
#3085
1#
b10 $
b1 %
#3090
b11 !
b100 "
0#
#3095
1#
#3100
b0 !
b111 "
0#
#3105
1#
b1 $
b0 %
#3110
b111 !
b0 "
0#
#3115
1#
b10 $
b1 %
#3120
b1 !
b110 "
0#
#3125
1#
#3130
b11 !
b100 "
0#
#3135
1#
#3140
b1 !
b110 "
0#
#3145
1#
#3150
b101 !
b10 "
0#
b1 $
#3155
1#
#3160
b11 !
b100 "
0#
#3165
1#
#3170
b1 !
b110 "
0#
#3175
1#
#3180
b110 !
b1 "
0#
#3185
1#
#3190
b101 !
b10 "
0#
b0 %
#3195
1#
b10 $
b1 %
#3200
b11 !
b100 "
0#
b1 $
#3205
1#
#3210
b111 !
b0 "
0#
b0 %
#3215
1#
b10 $
b1 %
#3220
b10 !
b101 "
0#
b1 $
#3225
1#
#3230
b0 !
b111 "
0#
#3235
1#
#3240
b11 !
b100 "
0#
#3245
1#
#3250
b111 !
b0 "
0#
#3255
1#
#3260
b11 !
b100 "
0#
b0 %
#3265
1#
b10 $
b1 %
#3270
b111 !
b0 "
0#
#3275
1#
#3280
b0 !
b111 "
0#
#3285
1#
b1 $
b0 %
#3290
b100 !
b11 "
0#
b1 %
#3295
1#
#3300
b101 !
b10 "
0#
#3305
1#
#3310
b0 !
b111 "
0#
b0 %
#3315
1#
#3320
b11 !
b100 "
0#
#3325
1#
b10 $
b1 %
#3330
0#
b1 $
#3335
1#
#3340
b1 !
b110 "
0#
b0 %
#3345
1#
b10 $
b1 %
#3350
b11 !
b100 "
0#
#3355
1#
#3360
b100 !
b11 "
0#
#3365
1#
b1000000 $
b11 %
#3370
b110 !
b1 "
0#
#3375
1#
b10000000 $
#3380
b100 !
b11 "
0#
#3385
1#
b1 $
b0 %
#3390
b11 !
b100 "
0#
#3395
1#
b10 $
b1 %
#3400
b101 !
b10 "
0#
#3405
1#
#3410
b0 !
b111 "
0#
b1 $
#3415
1#
#3420
b1 !
b110 "
0#
b0 %
#3425
1#
b10 $
b1 %
#3430
b100 !
b11 "
0#
b1 $
#3435
1#
#3440
0#
b0 %
#3445
1#
b1000000 $
b11 %
#3450
b101 !
b10 "
0#
b1 %
b1 $
#3455
1#
#3460
b10 !
b101 "
0#
#3465
1#
#3470
b100 !
b11 "
0#
#3475
1#
#3480
b110 !
b1 "
0#
b0 %
#3485
1#
b1000000 $
b11 %
#3490
0#
b1 %
b1 $
#3495
1#
#3500
b11 !
b100 "
0#
b0 %
#3505
1#
b10 $
b1 %
#3510
b10 !
b101 "
0#
#3515
1#
b10000 $
b10 %
#3520
b101 !
b10 "
0#
b1 %
b1 $
#3525
1#
#3530
b0 !
b111 "
0#
#3535
1#
#3540
b101 !
b10 "
0#
#3545
1#
#3550
b11 !
b100 "
0#
#3555
1#
#3560
b100 !
b11 "
0#
#3565
1#
#3570
b10 !
b101 "
0#
b0 %
#3575
1#
b10000 $
b10 %
#3580
b111 !
b0 "
0#
b1 %
b1 $
#3585
1#
#3590
b100 !
b11 "
0#
#3595
1#
#3600
b110 !
b1 "
0#
#3605
1#
#3610
b111 !
b0 "
0#
b0 %
#3615
1#
b10 $
b1 %
#3620
b11 !
b100 "
0#
#3625
1#
#3630
b111 !
b0 "
0#
#3635
1#
#3640
b110 !
b1 "
0#
#3645
1#
b1000000 $
b11 %
#3650
b0 !
b111 "
0#
#3655
1#
b1 $
b0 %
#3660
b110 !
b1 "
0#
b1 %
#3665
1#
#3670
b0 !
b111 "
0#
#3675
1#
#3680
0#
#3685
1#
#3690
b10 !
b101 "
0#
b0 %
#3695
1#
b10000 $
b10 %
#3700
b0 !
b111 "
0#
b1 %
b1 $
#3705
1#
#3710
b110 !
b1 "
0#
b0 %
#3715
1#
b1000000 $
b11 %
#3720
b101 !
b10 "
0#
#3725
1#
b100 $
b1 %
#3730
b1 !
b110 "
0#
b1 $
#3735
1#
#3740
b100 !
b11 "
0#
b0 %
#3745
1#
b1000000 $
b11 %
#3750
0#
#3755
1#
b10000000 $
#3760
b1 !
b110 "
0#
#3765
1#
b10 $
b1 %
#3770
b100 !
b11 "
0#
b1 $
#3775
1#
#3780
b10 !
b101 "
0#
#3785
1#
#3790
b100 !
b11 "
0#
#3795
1#
#3800
b1 !
b110 "
0#
#3805
1#
#3810
b0 !
b111 "
0#
b0 %
#3815
1#
#3820
b101 !
b10 "
0#
b1 %
#3825
1#
#3830
b11 !
b100 "
0#
b0 %
#3835
1#
b10 $
b1 %
#3840
b100 !
b11 "
0#
b1 $
#3845
1#
#3850
b101 !
b10 "
0#
b0 %
#3855
1#
b10 $
b1 %
#3860
b10 !
b101 "
0#
#3865
1#
b10000 $
b10 %
#3870
0#
b1 %
b1 $
#3875
1#
#3880
b111 !
b0 "
0#
b0 %
#3885
1#
b10 $
b1 %
#3890
b10 !
b101 "
0#
b1 $
#3895
1#
#3900
b0 !
b111 "
0#
b0 %
#3905
1#
#3910
b101 !
b10 "
0#
b1 %
#3915
1#
#3920
0#
#3925
1#
#3930
b0 !
b111 "
0#
#3935
1#
#3940
b100 !
b11 "
0#
#3945
1#
#3950
b1 !
b110 "
0#
b0 %
#3955
1#
b10 $
b1 %
#3960
b0 !
b111 "
0#
#3965
1#
b1 $
b0 %
#3970
0#
#3975
1#
#3980
b110 !
b1 "
0#
#3985
1#
b1000000 $
b11 %
#3990
b10 !
b101 "
0#
#3995
1#
b10000 $
b10 %
#4000
b0 !
b111 "
0#
#4005
1#
b1 $
b0 %
#4010
b100 !
b11 "
0#
b1 %
#4015
1#
#4020
b101 !
b10 "
0#
b0 %
#4025
1#
b10 $
b1 %
#4030
b100 !
b11 "
0#
b1 $
#4035
1#
#4040
b1 !
b110 "
0#
#4045
1#
#4050
b100 !
b11 "
0#
b0 %
#4055
1#
b1000000 $
b11 %
#4060
0#
#4065
1#
b10000000 $
#4070
b0 !
b111 "
0#
b1 %
b1 $
#4075
1#
#4080
b1 !
b110 "
0#
#4085
1#
#4090
b111 !
b0 "
0#
#4095
1#
#4100
0#
#4105
1#
#4110
b110 !
b1 "
0#
#4115
1#
#4120
0#
#4125
1#
#4130
b11 !
b100 "
0#
#4135
1#
#4140
0#
b0 %
#4145
1#
b10 $
b1 %
#4150
b100 !
b11 "
0#
b1 $
#4155
1#
#4160
b10 !
b101 "
0#
#4165
1#
#4170
b1 !
b110 "
0#
#4175
1#
#4180
b11 !
b100 "
0#
b0 %
#4185
1#
b10 $
b1 %
#4190
0#
b1 $
#4195
1#
#4200
b10 !
b101 "
0#
b0 %
#4205
1#
b10000 $
b10 %
#4210
b11 !
b100 "
0#
b1 %
b1 $
#4215
1#
#4220
b0 !
b111 "
0#
#4225
1#
#4230
0#
b0 %
#4235
1#
#4240
b10 !
b101 "
0#
#4245
1#
b10000 $
b10 %
#4250
b0 !
b111 "
0#
b1 %
b1 $
#4255
1#
#4260
b110 !
b1 "
0#
#4265
1#
#4270
0#
#4275
1#
#4280
b100 !
b11 "
0#
#4285
1#
#4290
b101 !
b10 "
0#
b0 %
#4295
1#
b10 $
b1 %
#4300
b11 !
b100 "
0#
b1 $
#4305
1#
#4310
b1 !
b110 "
0#
#4315
1#
#4320
b0 !
b111 "
0#
b0 %
#4325
1#
#4330
b1 !
b110 "
0#
#4335
1#
b10 $
b1 %
#4340
b101 !
b10 "
0#
#4345
1#
#4350
b10 !
b101 "
0#
#4355
1#
b10000 $
b10 %
#4360
b0 !
b111 "
0#
b1 %
b1 $
#4365
1#
#4370
b11 !
b100 "
0#
b0 %
#4375
1#
b10 $
b1 %
#4380
b111 !
b0 "
0#
b1 $
#4385
1#
#4390
b100 !
b11 "
0#
b0 %
#4395
1#
b1000000 $
b11 %
#4400
b0 !
b111 "
0#
b1 %
b1 $
#4405
1#
#4410
b110 !
b1 "
0#
#4415
1#
#4420
b111 !
b0 "
0#
b0 %
#4425
1#
b10 $
b1 %
#4430
b11 !
b100 "
0#
#4435
1#
#4440
b10 !
b101 "
0#
#4445
1#
b10000 $
b10 %
#4450
b101 !
b10 "
0#
#4455
1#
b10 $
b1 %
#4460
b0 !
b111 "
0#
b1 $
#4465
1#
#4470
b10 !
b101 "
0#
b0 %
#4475
1#
b10000 $
b10 %
#4480
b111 !
b0 "
0#
b1 %
b1 $
#4485
1#
#4490
b10 !
b101 "
0#
#4495
1#
#4500
b11 !
b100 "
0#
#4505
1#
#4510
0#
b0 %
#4515
1#
b10 $
b1 %
#4520
b100 !
b11 "
0#
#4525
1#
b1000000 $
b11 %
#4530
b10 !
b101 "
0#
b1 %
b1 $
#4535
1#
#4540
b0 !
b111 "
0#
b0 %
#4545
1#
#4550
b1 !
b110 "
0#
b1 %
#4555
1#
#4560
b111 !
b0 "
0#
b0 %
#4565
1#
b10 $
b1 %
#4570
b11 !
b100 "
0#
#4575
1#
#4580
b110 !
b1 "
0#
#4585
1#
b10000 $
b10 %
#4590
b111 !
b0 "
0#
b1 %
b1 $
#4595
1#
#4600
b110 !
b1 "
0#
#4605
1#
#4610
b100 !
b11 "
0#
b0 %
#4615
1#
b1000000 $
b11 %
#4620
b111 !
b0 "
0#
#4625
1#
b100 $
b1 %
#4630
b0 !
b111 "
0#
#4635
1#
b1 $
b0 %
#4640
b11 !
b100 "
0#
b1 %
#4645
1#
#4650
b110 !
b1 "
0#
#4655
1#
#4660
b111 !
b0 "
0#
b0 %
#4665
1#
b10 $
b1 %
#4670
b10 !
b101 "
0#
b1 $
#4675
1#
#4680
b111 !
b0 "
0#
#4685
1#
#4690
b110 !
b1 "
0#
#4695
1#
#4700
b1 !
b110 "
0#
#4705
1#
#4710
b111 !
b0 "
0#
b0 %
#4715
1#
b10 $
b1 %
#4720
b1 !
b110 "
0#
#4725
1#
#4730
b100 !
b11 "
0#
#4735
1#
b1000000 $
b11 %
#4740
b111 !
b0 "
0#
#4745
1#
b100 $
b1 %
#4750
b0 !
b111 "
0#
#4755
1#
b1 $
b0 %
#4760
b1 !
b110 "
0#
#4765
1#
b10 $
b1 %
#4770
b11 !
b100 "
0#
#4775
1#
#4780
b10 !
b101 "
0#
b1 $
#4785
1#
#4790
b101 !
b10 "
0#
b0 %
#4795
1#
b10 $
b1 %
#4800
b100 !
b11 "
0#
b1 $
#4805
1#
#4810
b101 !
b10 "
0#
b0 %
#4815
1#
b10 $
b1 %
#4820
b100 !
b11 "
0#
b1 $
#4825
1#
#4830
0#
#4835
1#
#4840
b111 !
b0 "
0#
#4845
1#
#4850
b11 !
b100 "
0#
#4855
1#
#4860
b110 !
b1 "
0#
#4865
1#
#4870
b111 !
b0 "
0#
b0 %
#4875
1#
b10 $
b1 %
#4880
b100 !
b11 "
0#
#4885
1#
b1000000 $
b11 %
#4890
b10 !
b101 "
0#
b1 %
b1 $
#4895
1#
#4900
b1 !
b110 "
0#
#4905
1#
#4910
b100 !
b11 "
0#
#4915
1#
#4920
b11 !
b100 "
0#
#4925
1#
#4930
0#
b0 %
#4935
1#
b10 $
b1 %
#4940
b111 !
b0 "
0#
b1 $
#4945
1#
#4950
b100 !
b11 "
0#
#4955
1#
#4960
0#
b0 %
#4965
1#
b1000000 $
b11 %
#4970
b1 !
b110 "
0#
#4975
1#
b10 $
b1 %
#4980
b11 !
b100 "
0#
b1 $
#4985
1#
#4990
b100 !
b11 "
0#
#4995
1#
#5000
b11 !
b100 "
0#
#5005
1#
#5010
b111 !
b0 "
0#
#5015
1#
#5020
b1 !
b110 "
0#
b0 %
#5025
1#
b10 $
b1 %
#5030
b11 !
b100 "
0#
#5035
1#
#5040
b10 !
b101 "
0#
b1 $
#5045
1#
